{
    "url": "https://api.github.com/repos/open-craft/edx-platform/pulls/608",
    "id": 1617263201,
    "node_id": "PR_kwDOATBGE85gZXph",
    "html_url": "https://github.com/open-craft/edx-platform/pull/608",
    "diff_url": "https://github.com/open-craft/edx-platform/pull/608.diff",
    "patch_url": "https://github.com/open-craft/edx-platform/pull/608.patch",
    "issue_url": "https://api.github.com/repos/open-craft/edx-platform/issues/608",
    "number": 608,
    "state": "open",
    "locked": false,
    "title": "feat: test sandbox",
    "user": {
      "login": "kaustavb12",
      "id": 36229857,
      "node_id": "MDQ6VXNlcjM2MjI5ODU3",
      "avatar_url": "https://avatars.githubusercontent.com/u/36229857?v=4",
      "gravatar_id": "",
      "url": "https://api.github.com/users/kaustavb12",
      "html_url": "https://github.com/kaustavb12",
      "followers_url": "https://api.github.com/users/kaustavb12/followers",
      "following_url": "https://api.github.com/users/kaustavb12/following{/other_user}",
      "gists_url": "https://api.github.com/users/kaustavb12/gists{/gist_id}",
      "starred_url": "https://api.github.com/users/kaustavb12/starred{/owner}{/repo}",
      "subscriptions_url": "https://api.github.com/users/kaustavb12/subscriptions",
      "organizations_url": "https://api.github.com/users/kaustavb12/orgs",
      "repos_url": "https://api.github.com/users/kaustavb12/repos",
      "events_url": "https://api.github.com/users/kaustavb12/events{/privacy}",
      "received_events_url": "https://api.github.com/users/kaustavb12/received_events",
      "type": "User",
      "site_admin": false
    },
    "body": "Testing\r\n**Settings**\r\n```yaml\r\nEDXAPP_EXTRA_SETTINGS: my extra settings```",
    "created_at": "2023-11-27T04:47:25Z",
    "updated_at": "2023-12-13T19:14:40Z",
    "closed_at": null,
    "merged_at": null,
    "merge_commit_sha": "184e66901d7064b1ccdaa086f2ddfb6d0660cba7",
    "assignee": null,
    "assignees": [
  
    ],
    "requested_reviewers": [
  
    ],
    "requested_teams": [
  
    ],
    "labels": [
      {
        "id": 6322404067,
        "node_id": "LA_kwDOATBGE88AAAABeNg64w",
        "url": "https://api.github.com/repos/open-craft/edx-platform/labels/create-sandbox",
        "name": "create-sandbox",
        "color": "D3A02E",
        "default": false,
        "description": ""
      }
    ],
    "milestone": null,
    "draft": false,
    "commits_url": "https://api.github.com/repos/open-craft/edx-platform/pulls/608/commits",
    "review_comments_url": "https://api.github.com/repos/open-craft/edx-platform/pulls/608/comments",
    "review_comment_url": "https://api.github.com/repos/open-craft/edx-platform/pulls/comments{/number}",
    "comments_url": "https://api.github.com/repos/open-craft/edx-platform/issues/608/comments",
    "statuses_url": "https://api.github.com/repos/open-craft/edx-platform/statuses/0ce6bf5f13ac5917dd09a313618f607b891cd2a4",
    "head": {
      "label": "open-craft:kaustav/sandbox_test_palm",
      "ref": "kaustav/sandbox_test_palm",
      "sha": "0ce6bf5f13ac5917dd09a313618f607b891cd2a4",
      "user": {
        "login": "open-craft",
        "id": 7414786,
        "node_id": "MDEyOk9yZ2FuaXphdGlvbjc0MTQ3ODY=",
        "avatar_url": "https://avatars.githubusercontent.com/u/7414786?v=4",
        "gravatar_id": "",
        "url": "https://api.github.com/users/open-craft",
        "html_url": "https://github.com/open-craft",
        "followers_url": "https://api.github.com/users/open-craft/followers",
        "following_url": "https://api.github.com/users/open-craft/following{/other_user}",
        "gists_url": "https://api.github.com/users/open-craft/gists{/gist_id}",
        "starred_url": "https://api.github.com/users/open-craft/starred{/owner}{/repo}",
        "subscriptions_url": "https://api.github.com/users/open-craft/subscriptions",
        "organizations_url": "https://api.github.com/users/open-craft/orgs",
        "repos_url": "https://api.github.com/users/open-craft/repos",
        "events_url": "https://api.github.com/users/open-craft/events{/privacy}",
        "received_events_url": "https://api.github.com/users/open-craft/received_events",
        "type": "Organization",
        "site_admin": false
      },
      "repo": {
        "id": 19940883,
        "node_id": "MDEwOlJlcG9zaXRvcnkxOTk0MDg4Mw==",
        "name": "edx-platform",
        "full_name": "open-craft/edx-platform",
        "private": false,
        "owner": {
          "login": "open-craft",
          "id": 7414786,
          "node_id": "MDEyOk9yZ2FuaXphdGlvbjc0MTQ3ODY=",
          "avatar_url": "https://avatars.githubusercontent.com/u/7414786?v=4",
          "gravatar_id": "",
          "url": "https://api.github.com/users/open-craft",
          "html_url": "https://github.com/open-craft",
          "followers_url": "https://api.github.com/users/open-craft/followers",
          "following_url": "https://api.github.com/users/open-craft/following{/other_user}",
          "gists_url": "https://api.github.com/users/open-craft/gists{/gist_id}",
          "starred_url": "https://api.github.com/users/open-craft/starred{/owner}{/repo}",
          "subscriptions_url": "https://api.github.com/users/open-craft/subscriptions",
          "organizations_url": "https://api.github.com/users/open-craft/orgs",
          "repos_url": "https://api.github.com/users/open-craft/repos",
          "events_url": "https://api.github.com/users/open-craft/events{/privacy}",
          "received_events_url": "https://api.github.com/users/open-craft/received_events",
          "type": "Organization",
          "site_admin": false
        },
        "html_url": "https://github.com/open-craft/edx-platform",
        "description": "the edX learning management system (LMS) and course authoring tool, Studio",
        "fork": true,
        "url": "https://api.github.com/repos/open-craft/edx-platform",
        "forks_url": "https://api.github.com/repos/open-craft/edx-platform/forks",
        "keys_url": "https://api.github.com/repos/open-craft/edx-platform/keys{/key_id}",
        "collaborators_url": "https://api.github.com/repos/open-craft/edx-platform/collaborators{/collaborator}",
        "teams_url": "https://api.github.com/repos/open-craft/edx-platform/teams",
        "hooks_url": "https://api.github.com/repos/open-craft/edx-platform/hooks",
        "issue_events_url": "https://api.github.com/repos/open-craft/edx-platform/issues/events{/number}",
        "events_url": "https://api.github.com/repos/open-craft/edx-platform/events",
        "assignees_url": "https://api.github.com/repos/open-craft/edx-platform/assignees{/user}",
        "branches_url": "https://api.github.com/repos/open-craft/edx-platform/branches{/branch}",
        "tags_url": "https://api.github.com/repos/open-craft/edx-platform/tags",
        "blobs_url": "https://api.github.com/repos/open-craft/edx-platform/git/blobs{/sha}",
        "git_tags_url": "https://api.github.com/repos/open-craft/edx-platform/git/tags{/sha}",
        "git_refs_url": "https://api.github.com/repos/open-craft/edx-platform/git/refs{/sha}",
        "trees_url": "https://api.github.com/repos/open-craft/edx-platform/git/trees{/sha}",
        "statuses_url": "https://api.github.com/repos/open-craft/edx-platform/statuses/{sha}",
        "languages_url": "https://api.github.com/repos/open-craft/edx-platform/languages",
        "stargazers_url": "https://api.github.com/repos/open-craft/edx-platform/stargazers",
        "contributors_url": "https://api.github.com/repos/open-craft/edx-platform/contributors",
        "subscribers_url": "https://api.github.com/repos/open-craft/edx-platform/subscribers",
        "subscription_url": "https://api.github.com/repos/open-craft/edx-platform/subscription",
        "commits_url": "https://api.github.com/repos/open-craft/edx-platform/commits{/sha}",
        "git_commits_url": "https://api.github.com/repos/open-craft/edx-platform/git/commits{/sha}",
        "comments_url": "https://api.github.com/repos/open-craft/edx-platform/comments{/number}",
        "issue_comment_url": "https://api.github.com/repos/open-craft/edx-platform/issues/comments{/number}",
        "contents_url": "https://api.github.com/repos/open-craft/edx-platform/contents/{+path}",
        "compare_url": "https://api.github.com/repos/open-craft/edx-platform/compare/{base}...{head}",
        "merges_url": "https://api.github.com/repos/open-craft/edx-platform/merges",
        "archive_url": "https://api.github.com/repos/open-craft/edx-platform/{archive_format}{/ref}",
        "downloads_url": "https://api.github.com/repos/open-craft/edx-platform/downloads",
        "issues_url": "https://api.github.com/repos/open-craft/edx-platform/issues{/number}",
        "pulls_url": "https://api.github.com/repos/open-craft/edx-platform/pulls{/number}",
        "milestones_url": "https://api.github.com/repos/open-craft/edx-platform/milestones{/number}",
        "notifications_url": "https://api.github.com/repos/open-craft/edx-platform/notifications{?since,all,participating}",
        "labels_url": "https://api.github.com/repos/open-craft/edx-platform/labels{/name}",
        "releases_url": "https://api.github.com/repos/open-craft/edx-platform/releases{/id}",
        "deployments_url": "https://api.github.com/repos/open-craft/edx-platform/deployments",
        "created_at": "2014-05-19T12:28:25Z",
        "updated_at": "2023-10-26T08:41:06Z",
        "pushed_at": "2023-12-13T23:34:12Z",
        "git_url": "git://github.com/open-craft/edx-platform.git",
        "ssh_url": "git@github.com:open-craft/edx-platform.git",
        "clone_url": "https://github.com/open-craft/edx-platform.git",
        "svn_url": "https://github.com/open-craft/edx-platform",
        "homepage": "http://code.edx.org/",
        "size": 2170202,
        "stargazers_count": 14,
        "watchers_count": 14,
        "language": null,
        "has_issues": false,
        "has_projects": false,
        "has_downloads": true,
        "has_wiki": false,
        "has_pages": false,
        "has_discussions": false,
        "forks_count": 7,
        "mirror_url": null,
        "archived": false,
        "disabled": false,
        "open_issues_count": 5,
        "license": null,
        "allow_forking": true,
        "is_template": false,
        "web_commit_signoff_required": false,
        "topics": [
          "pr-sandboxes-enabled"
        ],
        "visibility": "public",
        "forks": 7,
        "open_issues": 5,
        "watchers": 14,
        "default_branch": "open-craft-notice"
      }
    },
    "base": {
      "label": "open-craft:opencraft-release/palm.1",
      "ref": "opencraft-release/palm.1",
      "sha": "c5bd3f39c11c46d7e1744eca5264321146a5b100",
      "user": {
        "login": "open-craft",
        "id": 7414786,
        "node_id": "MDEyOk9yZ2FuaXphdGlvbjc0MTQ3ODY=",
        "avatar_url": "https://avatars.githubusercontent.com/u/7414786?v=4",
        "gravatar_id": "",
        "url": "https://api.github.com/users/open-craft",
        "html_url": "https://github.com/open-craft",
        "followers_url": "https://api.github.com/users/open-craft/followers",
        "following_url": "https://api.github.com/users/open-craft/following{/other_user}",
        "gists_url": "https://api.github.com/users/open-craft/gists{/gist_id}",
        "starred_url": "https://api.github.com/users/open-craft/starred{/owner}{/repo}",
        "subscriptions_url": "https://api.github.com/users/open-craft/subscriptions",
        "organizations_url": "https://api.github.com/users/open-craft/orgs",
        "repos_url": "https://api.github.com/users/open-craft/repos",
        "events_url": "https://api.github.com/users/open-craft/events{/privacy}",
        "received_events_url": "https://api.github.com/users/open-craft/received_events",
        "type": "Organization",
        "site_admin": false
      },
      "repo": {
        "id": 19940883,
        "node_id": "MDEwOlJlcG9zaXRvcnkxOTk0MDg4Mw==",
        "name": "edx-platform",
        "full_name": "open-craft/edx-platform",
        "private": false,
        "owner": {
          "login": "open-craft",
          "id": 7414786,
          "node_id": "MDEyOk9yZ2FuaXphdGlvbjc0MTQ3ODY=",
          "avatar_url": "https://avatars.githubusercontent.com/u/7414786?v=4",
          "gravatar_id": "",
          "url": "https://api.github.com/users/open-craft",
          "html_url": "https://github.com/open-craft",
          "followers_url": "https://api.github.com/users/open-craft/followers",
          "following_url": "https://api.github.com/users/open-craft/following{/other_user}",
          "gists_url": "https://api.github.com/users/open-craft/gists{/gist_id}",
          "starred_url": "https://api.github.com/users/open-craft/starred{/owner}{/repo}",
          "subscriptions_url": "https://api.github.com/users/open-craft/subscriptions",
          "organizations_url": "https://api.github.com/users/open-craft/orgs",
          "repos_url": "https://api.github.com/users/open-craft/repos",
          "events_url": "https://api.github.com/users/open-craft/events{/privacy}",
          "received_events_url": "https://api.github.com/users/open-craft/received_events",
          "type": "Organization",
          "site_admin": false
        },
        "html_url": "https://github.com/open-craft/edx-platform",
        "description": "the edX learning management system (LMS) and course authoring tool, Studio",
        "fork": true,
        "url": "https://api.github.com/repos/open-craft/edx-platform",
        "forks_url": "https://api.github.com/repos/open-craft/edx-platform/forks",
        "keys_url": "https://api.github.com/repos/open-craft/edx-platform/keys{/key_id}",
        "collaborators_url": "https://api.github.com/repos/open-craft/edx-platform/collaborators{/collaborator}",
        "teams_url": "https://api.github.com/repos/open-craft/edx-platform/teams",
        "hooks_url": "https://api.github.com/repos/open-craft/edx-platform/hooks",
        "issue_events_url": "https://api.github.com/repos/open-craft/edx-platform/issues/events{/number}",
        "events_url": "https://api.github.com/repos/open-craft/edx-platform/events",
        "assignees_url": "https://api.github.com/repos/open-craft/edx-platform/assignees{/user}",
        "branches_url": "https://api.github.com/repos/open-craft/edx-platform/branches{/branch}",
        "tags_url": "https://api.github.com/repos/open-craft/edx-platform/tags",
        "blobs_url": "https://api.github.com/repos/open-craft/edx-platform/git/blobs{/sha}",
        "git_tags_url": "https://api.github.com/repos/open-craft/edx-platform/git/tags{/sha}",
        "git_refs_url": "https://api.github.com/repos/open-craft/edx-platform/git/refs{/sha}",
        "trees_url": "https://api.github.com/repos/open-craft/edx-platform/git/trees{/sha}",
        "statuses_url": "https://api.github.com/repos/open-craft/edx-platform/statuses/{sha}",
        "languages_url": "https://api.github.com/repos/open-craft/edx-platform/languages",
        "stargazers_url": "https://api.github.com/repos/open-craft/edx-platform/stargazers",
        "contributors_url": "https://api.github.com/repos/open-craft/edx-platform/contributors",
        "subscribers_url": "https://api.github.com/repos/open-craft/edx-platform/subscribers",
        "subscription_url": "https://api.github.com/repos/open-craft/edx-platform/subscription",
        "commits_url": "https://api.github.com/repos/open-craft/edx-platform/commits{/sha}",
        "git_commits_url": "https://api.github.com/repos/open-craft/edx-platform/git/commits{/sha}",
        "comments_url": "https://api.github.com/repos/open-craft/edx-platform/comments{/number}",
        "issue_comment_url": "https://api.github.com/repos/open-craft/edx-platform/issues/comments{/number}",
        "contents_url": "https://api.github.com/repos/open-craft/edx-platform/contents/{+path}",
        "compare_url": "https://api.github.com/repos/open-craft/edx-platform/compare/{base}...{head}",
        "merges_url": "https://api.github.com/repos/open-craft/edx-platform/merges",
        "archive_url": "https://api.github.com/repos/open-craft/edx-platform/{archive_format}{/ref}",
        "downloads_url": "https://api.github.com/repos/open-craft/edx-platform/downloads",
        "issues_url": "https://api.github.com/repos/open-craft/edx-platform/issues{/number}",
        "pulls_url": "https://api.github.com/repos/open-craft/edx-platform/pulls{/number}",
        "milestones_url": "https://api.github.com/repos/open-craft/edx-platform/milestones{/number}",
        "notifications_url": "https://api.github.com/repos/open-craft/edx-platform/notifications{?since,all,participating}",
        "labels_url": "https://api.github.com/repos/open-craft/edx-platform/labels{/name}",
        "releases_url": "https://api.github.com/repos/open-craft/edx-platform/releases{/id}",
        "deployments_url": "https://api.github.com/repos/open-craft/edx-platform/deployments",
        "created_at": "2014-05-19T12:28:25Z",
        "updated_at": "2023-10-26T08:41:06Z",
        "pushed_at": "2023-12-13T23:34:12Z",
        "git_url": "git://github.com/open-craft/edx-platform.git",
        "ssh_url": "git@github.com:open-craft/edx-platform.git",
        "clone_url": "https://github.com/open-craft/edx-platform.git",
        "svn_url": "https://github.com/open-craft/edx-platform",
        "homepage": "http://code.edx.org/",
        "size": 2170202,
        "stargazers_count": 14,
        "watchers_count": 14,
        "language": null,
        "has_issues": false,
        "has_projects": false,
        "has_downloads": true,
        "has_wiki": false,
        "has_pages": false,
        "has_discussions": false,
        "forks_count": 7,
        "mirror_url": null,
        "archived": false,
        "disabled": false,
        "open_issues_count": 5,
        "license": null,
        "allow_forking": true,
        "is_template": false,
        "web_commit_signoff_required": false,
        "topics": [
          "pr-sandboxes-enabled"
        ],
        "visibility": "public",
        "forks": 7,
        "open_issues": 5,
        "watchers": 14,
        "default_branch": "open-craft-notice"
      }
    },
    "_links": {
      "self": {
        "href": "https://api.github.com/repos/open-craft/edx-platform/pulls/608"
      },
      "html": {
        "href": "https://github.com/open-craft/edx-platform/pull/608"
      },
      "issue": {
        "href": "https://api.github.com/repos/open-craft/edx-platform/issues/608"
      },
      "comments": {
        "href": "https://api.github.com/repos/open-craft/edx-platform/issues/608/comments"
      },
      "review_comments": {
        "href": "https://api.github.com/repos/open-craft/edx-platform/pulls/608/comments"
      },
      "review_comment": {
        "href": "https://api.github.com/repos/open-craft/edx-platform/pulls/comments{/number}"
      },
      "commits": {
        "href": "https://api.github.com/repos/open-craft/edx-platform/pulls/608/commits"
      },
      "statuses": {
        "href": "https://api.github.com/repos/open-craft/edx-platform/statuses/0ce6bf5f13ac5917dd09a313618f607b891cd2a4"
      }
    },
    "author_association": "MEMBER",
    "auto_merge": null,
    "active_lock_reason": null,
    "merged": false,
    "mergeable": true,
    "rebaseable": true,
    "mergeable_state": "clean",
    "merged_by": null,
    "comments": 5,
    "review_comments": 0,
    "maintainer_can_modify": false,
    "commits": 1,
    "additions": 1,
    "deletions": 0,
    "changed_files": 1
  }